rx/input.vcd
$timescale 100us $end
$scope module logic $end
$var wire 1 p iogD_2 $end
$upscope $end
$enddefinitions $end
$dumpvars
xp
$end
0p


#10
1p
#15
0p

#20
1p
#22
0p
#30
1p
#38
0p
#40
1p
#48
0p
#50
1p
#52
0p
#60
1p
#68
0p
#70
1p
#72
0p
#80
1p
#82
0p
#90
1p
#92
0p


#100
1p
#105
0p

#110
1p
#112
0p
#120
1p
#128
0p
#130
1p
#138
0p
#140
1p
#142
0p
#150
1p
#152
0p
#160
1p
#168
0p
#170
1p
#172
0p
#180
1p
#188
0p
#2000
1p